module gitlab.com/george/shoya-go

go 1.18

require (
	github.com/alexedwards/argon2id v0.0.0-20211130144151-3585854a6387
	github.com/go-redis/redis/v8 v8.11.5
	github.com/gofiber/fiber/v2 v2.33.0
	github.com/gofiber/websocket/v2 v2.0.21
	github.com/golang-jwt/jwt v3.2.2+incompatible
	github.com/google/uuid v1.3.0
	github.com/gtsatsis/harvester v0.16.2
	github.com/lib/pq v1.10.5
	github.com/minio/minio-go/v7 v7.0.27
	github.com/mitchellh/mapstructure v1.5.0
	github.com/rueian/rueidis v0.0.45
	github.com/tj/go-naturaldate v1.3.0
	github.com/tkanos/gonfig v0.0.0-20210106201359-53e13348de2f
	gorm.io/driver/postgres v1.3.5
	gorm.io/gorm v1.23.5
)

require (
	github.com/andybalholm/brotli v1.0.4 // indirect
	github.com/armon/go-metrics v0.3.11 // indirect
	github.com/cespare/xxhash/v2 v2.1.2 // indirect
	github.com/dgryski/go-rendezvous v0.0.0-20200823014737-9f7001d12a5f // indirect
	github.com/dustin/go-humanize v1.0.0 // indirect
	github.com/fasthttp/websocket v1.5.0 // indirect
	github.com/fatih/color v1.13.0 // indirect
	github.com/ghodss/yaml v1.0.0 // indirect
	github.com/gopherjs/gopherjs v1.17.2 // indirect
	github.com/hashicorp/consul/api v1.12.0 // indirect
	github.com/hashicorp/go-cleanhttp v0.5.2 // indirect
	github.com/hashicorp/go-hclog v1.2.0 // indirect
	github.com/hashicorp/go-immutable-radix v1.3.1 // indirect
	github.com/hashicorp/go-rootcerts v1.0.2 // indirect
	github.com/hashicorp/golang-lru v0.5.4 // indirect
	github.com/hashicorp/serf v0.9.8 // indirect
	github.com/jackc/chunkreader/v2 v2.0.1 // indirect
	github.com/jackc/pgconn v1.12.1 // indirect
	github.com/jackc/pgio v1.0.0 // indirect
	github.com/jackc/pgpassfile v1.0.0 // indirect
	github.com/jackc/pgproto3/v2 v2.3.0 // indirect
	github.com/jackc/pgservicefile v0.0.0-20200714003250-2b9c44734f2b // indirect
	github.com/jackc/pgtype v1.11.0 // indirect
	github.com/jackc/pgx/v4 v4.16.1 // indirect
	github.com/jinzhu/inflection v1.0.0 // indirect
	github.com/jinzhu/now v1.1.5 // indirect
	github.com/json-iterator/go v1.1.12 // indirect
	github.com/jtolds/gls v4.20.0+incompatible // indirect
	github.com/klauspost/compress v1.15.4 // indirect
	github.com/klauspost/cpuid v1.3.1 // indirect
	github.com/mattn/go-colorable v0.1.12 // indirect
	github.com/mattn/go-isatty v0.0.14 // indirect
	github.com/minio/md5-simd v1.1.0 // indirect
	github.com/minio/sha256-simd v0.1.1 // indirect
	github.com/mitchellh/go-homedir v1.1.0 // indirect
	github.com/modern-go/concurrent v0.0.0-20180306012644-bacd9c7ef1dd // indirect
	github.com/modern-go/reflect2 v1.0.2 // indirect
	github.com/rs/xid v1.2.1 // indirect
	github.com/savsgio/gotils v0.0.0-20220401102855-e56b59f40436 // indirect
	github.com/sirupsen/logrus v1.8.1 // indirect
	github.com/smartystreets/assertions v1.13.0 // indirect
	github.com/valyala/bytebufferpool v1.0.0 // indirect
	github.com/valyala/fasthttp v1.36.0 // indirect
	github.com/valyala/tcplisten v1.0.0 // indirect
	golang.org/x/crypto v0.0.0-20220513210258-46612604a0f9 // indirect
	golang.org/x/net v0.0.0-20220225172249-27dd8689420f // indirect
	golang.org/x/sys v0.0.0-20220513210249-45d2b4557a2a // indirect
	golang.org/x/text v0.3.7 // indirect
	gopkg.in/ini.v1 v1.57.0 // indirect
	gopkg.in/yaml.v2 v2.4.0 // indirect
)
